[{
    "_id": "c-objandcntnts-01",
    "_parentId": "b-objandcntnts-01",
    "_type": "component",
    "_component": "text",
    "_classes": "",
    "_layout": "full",
    "title": "OBJETIVOS DE APRENDIZAJE",
    "displayTitle": "Objetivos de aprendizaje:",
    "body": "<ul><li>Identificar las necesidades del cliente relativas a cada segmento de Empresas (Mass Market, Middle Market y Corporate).</li><li>Identificar como encaja la nueva propuesta de Business Protector con las necesidades reales del cliente.</li><li>Transmitir el rol de AXA como Business Protector.</li><li>Reconocer al distribuidor como cliente de AXA.</li></ul>",
    "instruction": "",
    "_pageLevelProgress": {
        "_isEnabled": true
    }
},
{
    "_id": "c-objandcntnts-02",
    "_parentId": "b-objandcntnts-02",
    "_type": "component",
    "_component": "text",
    "_classes": "",
    "_layout": "full",
    "title": "CONTENIDOS",
    "displayTitle": "Contenidos:",
    "body": "<ul><li>Quiénes son nuestros clientes.</li><li>Qué necesitan nuestros clientes.</li><li>AXA como business protector.</li><li>El distribuidor como cliente.</li></ul>",
    "instruction": "",
    "_pageLevelProgress": {
        "_isEnabled": true
    }
},
{
    "_id": "c-elearning-01",
    "_parentId": "b-elearning-01",
    "_type": "component",
    "_component": "text",
    "_classes": "",
    "_layout": "full",
    "title": "QUIÉNES SON NUESTROS CLIENTES",
    "displayTitle": "",
    "body": "<div class='green'>SIGUIENTE TEMA.<br><h3 class='current-topic'>Quiénes son nuestros clientes.</h3></div><h3 class='lightgreen'>Qué necesitan nuestros clientes.</h3><h3 class='lightgreen'>AXA como Business Protector.</h3><h3 class='lightgreen'>El distribuidor como cliente.</h3>",
    "instruction": "",
    "_pageLevelProgress": {
        "_isEnabled": true
    }
},
{
    "_id": "c-elearning-02",
    "_parentId": "b-elearning-02",
    "_type": "component",
    "_component": "media",
    "_classes": "",
    "_layout": "full",
    "_comment": "_setCompletionOn = inview | play | ended",
    "_setCompletionOn": "ended",
    "_useClosedCaptions": false,
    "title": "&sdot; vídeo 1",
    "displayTitle": "QUIÉNES SON NUESTROS CLIENTES",
    "body": "",
    "instruction": "",
    "_media": {
        "mp4": "course/en/video/AXA-M01-V01.mp4",
        "ogv": "",
        "poster": "course/en/images/poster-AXA-M01-V01.jpg",
        "cc": [{
            "srclang": "",
            "src": ""
        }]
    },
    "_transcript": {
        "_inlineTranscript": true,
        "_externalTranscript": false,
        "inlineTranscriptButton": "",
        "inlineTranscriptCloseButton": "",
        "inlineTranscriptBody": "",
        "transcriptLinkButton": "",
        "transcriptLink": ""
    },
    "_playerOptions": {
        "poster": "",
        "showPosterWhenEnded": false,
        "defaultVideoWidth": 480,
        "defaultVideoHeight": 270,
        "videoWidth": -1,
        "videoHeight": -1,
        "defaultAudioWidth": 400,
        "defaultAudioHeight": 30,
        "defaultSeekBackwardInterval": "(media.duration * 0.05)",
        "defaultSeekForwardInterval": "(media.duration * 0.05)",
        "audioWidth": -1,
        "audioHeight": -1,
        "startVolume": 0.8,
        "loop": false,
        "autoRewind": true,
        "enableAutosize": true,
        "alwaysShowHours": false,
        "showTimecodeFrameCount": false,
        "framesPerSecond": 25,
        "autosizeProgress": true,
        "alwaysShowControls": false,
        "hideVideoControlsOnLoad": false,
        "clickToPlayPause": true,
        "iPadUseNativeControls": false,
        "iPhoneUseNativeControls": false,
        "AndroidUseNativeControls": false,
        "features": ["playpause", "current", "progress", "duration", "tracks", "volume", "fullscreen"],
        "isVideo": true,
        "enableKeyboard": true,
        "pauseOtherPlayers": true,
        "startLanguage": "",
        "tracksText": "mejs.i18n.t('Captions/Subtitles')",
        "hideCaptionsButtonWhenEmpty": true,
        "toggleCaptionsButtonWhenOnlyOne": false,
        "slidesSelector": ""
    },
    "_pageLevelProgress": {
        "_isEnabled": true
    }
},
{
    "_id": "c-elearning-03",
    "_parentId": "b-elearning-03",
    "_type": "component",
    "_component": "text",
    "_classes": "component-header",
    "_layout": "full",
    "title": "",
    "displayTitle": "QUIÉNES SON NUESTROS CLIENTES",
    "body": "",
    "instruction": "",
    "_pageLevelProgress": {
        "_isEnabled": false
    }
},
{
    "_id": "c-elearning-03b",
    "_parentId": "b-elearning-03",
    "_type": "component",
    "_component": "media",
    "_classes": "",
    "_layout": "left",
    "_comment": "_setCompletionOn = inview | play | ended",
    "_setCompletionOn": "ended",
    "_useClosedCaptions": false,
    "title": "&sdot; vídeo 2",
    "displayTitle": "",
    "body": "<b>Clientes del segmento Mass Market,</b><br>por Amanda Blanc:",
    "instruction": "",
    "_media": {
        "mp4": "course/en/video/AXA-M01-V02A.mp4",
        "ogv": "",
        "poster": "course/en/images/poster-AXA-M01-V02A.jpg",
        "cc": [{
            "srclang": "",
            "src": ""
        }]
    },
    "_transcript": {
        "_inlineTranscript": true,
        "_externalTranscript": false,
        "inlineTranscriptButton": "",
        "inlineTranscriptCloseButton": "",
        "inlineTranscriptBody": "",
        "transcriptLinkButton": "",
        "transcriptLink": ""
    },
    "_playerOptions": {
        "poster": "",
        "showPosterWhenEnded": false,
        "defaultVideoWidth": 480,
        "defaultVideoHeight": 270,
        "videoWidth": -1,
        "videoHeight": -1,
        "defaultAudioWidth": 400,
        "defaultAudioHeight": 30,
        "defaultSeekBackwardInterval": "(media.duration * 0.05)",
        "defaultSeekForwardInterval": "(media.duration * 0.05)",
        "audioWidth": -1,
        "audioHeight": -1,
        "startVolume": 0.8,
        "loop": false,
        "autoRewind": true,
        "enableAutosize": true,
        "alwaysShowHours": false,
        "showTimecodeFrameCount": false,
        "framesPerSecond": 25,
        "autosizeProgress": true,
        "alwaysShowControls": false,
        "hideVideoControlsOnLoad": false,
        "clickToPlayPause": true,
        "iPadUseNativeControls": false,
        "iPhoneUseNativeControls": false,
        "AndroidUseNativeControls": false,
        "features": ["playpause", "current", "progress", "duration", "tracks", "volume", "fullscreen"],
        "isVideo": true,
        "enableKeyboard": true,
        "pauseOtherPlayers": true,
        "startLanguage": "",
        "tracksText": "mejs.i18n.t('Captions/Subtitles')",
        "hideCaptionsButtonWhenEmpty": true,
        "toggleCaptionsButtonWhenOnlyOne": false,
        "slidesSelector": ""
    },
    "_pageLevelProgress": {
        "_isEnabled": true
    }
},
{
    "_id": "c-elearning-03c",
    "_parentId": "b-elearning-03",
    "_type": "component",
    "_component": "media",
    "_classes": "",
    "_layout": "right",
    "_comment": "_setCompletionOn = inview | play | ended",
    "_setCompletionOn": "ended",
    "_useClosedCaptions": false,
    "title": "&sdot; vídeo 3",
    "displayTitle": "",
    "body": "<br>Clientes del segmento Middle Market,</b><br>por Guy van Hecke:",
    "instruction": "",
    "_media": {
        "mp4": "course/en/video/AXA-M01-V02B.mp4",
        "ogv": "",
        "poster": "course/en/images/poster-AXA-M01-V02B.jpg",
        "cc": [{
            "srclang": "",
            "src": ""
        }]
    },
    "_transcript": {
        "_inlineTranscript": true,
        "_externalTranscript": false,
        "inlineTranscriptButton": "",
        "inlineTranscriptCloseButton": "",
        "inlineTranscriptBody": "",
        "transcriptLinkButton": "",
        "transcriptLink": ""
    },
    "_playerOptions": {
        "poster": "",
        "showPosterWhenEnded": false,
        "defaultVideoWidth": 480,
        "defaultVideoHeight": 270,
        "videoWidth": -1,
        "videoHeight": -1,
        "defaultAudioWidth": 400,
        "defaultAudioHeight": 30,
        "defaultSeekBackwardInterval": "(media.duration * 0.05)",
        "defaultSeekForwardInterval": "(media.duration * 0.05)",
        "audioWidth": -1,
        "audioHeight": -1,
        "startVolume": 0.8,
        "loop": false,
        "autoRewind": true,
        "enableAutosize": true,
        "alwaysShowHours": false,
        "showTimecodeFrameCount": false,
        "framesPerSecond": 25,
        "autosizeProgress": true,
        "alwaysShowControls": false,
        "hideVideoControlsOnLoad": false,
        "clickToPlayPause": true,
        "iPadUseNativeControls": false,
        "iPhoneUseNativeControls": false,
        "AndroidUseNativeControls": false,
        "features": ["playpause", "current", "progress", "duration", "tracks", "volume", "fullscreen"],
        "isVideo": true,
        "enableKeyboard": true,
        "pauseOtherPlayers": true,
        "startLanguage": "",
        "tracksText": "mejs.i18n.t('Captions/Subtitles')",
        "hideCaptionsButtonWhenEmpty": true,
        "toggleCaptionsButtonWhenOnlyOne": false,
        "slidesSelector": ""
    },
    "_pageLevelProgress": {
        "_isEnabled": true
    }
},
{
    "_id": "c-elearning-04",
    "_parentId": "b-elearning-04",
    "_classes": "custom-accordion-m1",
    "_type": "component",
    "_layout": "full",
    "_component": "accordion",
    "title": "&sdot; actividad 1",
    "displayTitle": "¿Sabría ahora distinguir los segmentos del mercado de Empresas?",
    "body": "",
    "instruction": "<i>Echa un vistazo a las breves descripciones de cada empresa haciendo clic en los iconos «+».</i>",
    "_setCompletionOn": "allItems",
    "_items": [{
        "title": "Una farmacia",
        "body": "<img class='img-responsive' src='course/en/images/pharmacy-slider-1.jpg' alt='pharmacy' width='340'><p>Empleados: 10<br><br>Volumen de ventas: 2.000.000€.<br><br>Ubicaciones: 1<br><br>Suma asegurada: 5.000.000€</p>"
    },
    {
        "title": "Una gran industria química de ámbito internacional",
        "body": "<img class='img-responsive' src='course/en/images/chemicalindustry-slider-2.jpg' alt='chemical industry' width='340'><p>Empleados: 400<br><br>Volumen de ventas: 500.000.000 €.<br><br>Ubicaciones: 3<br><br>Suma asegurada: 650.000.000€</p>"
    },
    {
        "title": "Una empresa de procesamiento de alimentos",
        "body": "<img class='img-responsive' src='course/en/images/foodcompany-slider-3.jpg' alt='food manufacturing company' width='340'><p>Empleados: 20<br><br>Volumen de ventas: 5.000.000€.<br><br>Ubicaciones: 2<br><br>Suma asegurada: 30.000.000€</p>"
    }],
    "_pageLevelProgress": {
        "_isEnabled": true
    }
},
{
    "_id": "c-elearning-04b",
    "_parentId": "b-elearning-04",
    "_classes": "component-below-media",
    "_layout": "full",
    "_type": "component",
    "_component": "matching",
    "_attempts": 2,
    "_shouldDisplayAttempts": false,
    "_isRandom": true,
    "_questionWeight": 10,
    "title": "",
    "displayTitle": "",
    "body": "Ahora tienes información sobre tres empresas diferentes:",
    "instruction": "<i>Empareja cada empresa con su segmento correspondiente usando la opción del cuadro desplegable.</i>",
    "_feedback": {
        "correct": "¡Correcto!.<br><br>Todas las farmacias tienen la misma estructura de riesgos y se pueden incluir en el segmento Mass Market.<br><br>La empresa de procesamiento de alimentos necesita una solución a medida, por lo que está en el Middle Market.<br><br>La gran industria química de ámbito internacional pertenece al segmento Corporate. Este negocio necesita un seguro hecho a medida para su tamaño, su actividad y las necesidades de sus clientes.",
        "_incorrect": {
            "notFinal": "Inténtalo de nuevo.",
            "final": "No es correcto.<br><br>Todas las farmacias tienen la misma estructura de riesgos y se pueden incluir en el segmento Mass Market.<br><br>La empresa de procesamiento de alimentos necesita una solución a medida, por lo que está en el Middle Market.<br><br>La gran industria química de ámbito internacional pertenece al segmento Corporate. Este negocio necesita un seguro hecho a medida para su tamaño, su actividad y las necesidades de sus clientes."
        }
    },
    "placeholder": "selecciona una opción",
    "_items": [{
        "text": "La farmacia",
        "_options": [{
            "text": "Corporate",
            "_isCorrect": false
        },
        {
            "text": "Mass Market",
            "_isCorrect": true
        },
        {
            "text": "Middle Market",
            "_isCorrect": false
        }]
    },
    {
        "text": "La gran industria química de ámbito internacional",
        "_options": [{
            "text": "Grandes empresas/grupos empresariales",
            "_isCorrect": true
        },
        {
            "text": "PYMES de mercado a gran escala",
            "_isCorrect": false
        },
        {
            "text": "PYMES complejas",
            "_isCorrect": false
        }]
    },
    {
        "text": "La empresa de procesamiento de alimentos",
        "_options": [{
            "text": "Corporate",
            "_isCorrect": false
        },
        {
            "text": "Mass Market",
            "_isCorrect": false
        },
        {
            "text": "Middle Market",
            "_isCorrect": true
        }]
    }],
    "_isOptional": true,
    "_pageLevelProgress": {
        "_isEnabled": false
    }
},
{
    "_id": "c-elearning-06",
    "_parentId": "b-elearning-06",
    "_type": "component",
    "_component": "text",
    "_classes": "",
    "_layout": "full",
    "title": "QUÉ NECESITAN NUESTROS CLIENTES",
    "displayTitle": "",
    "body": "<h3 class='lightgreen'>Quiénes son nuestros clientes.</h3><div class='green'>SIGUIENTE TEMA.<br><h3 class='current-topic'>Qué necesitan nuestros clientes.</h3></div><h3 class='lightgreen'>AXA como business protector.</h3><h3 class='lightgreen'>El distribuidor como cliente.</h3>",
    "instruction": "",
    "_pageLevelProgress": {
        "_isEnabled": true
    }
},
{
    "_id": "c-elearning-07",
    "_parentId": "b-elearning-07",
    "_type": "component",
    "_component": "media",
    "_classes": "",
    "_layout": "full",
    "_comment": "_setCompletionOn = inview | play | ended",
    "_setCompletionOn": "ended",
    "_useClosedCaptions": false,
    "title": "&sdot; vídeo 1",
    "displayTitle": "Qué necesitan nuestros clientes: segmentación del mercado",
    "body": "",
    "instruction": "",
    "_media": {
        "mp4": "course/en/video/AXA-M01-V03.mp4",
        "ogv": "",
        "poster": "course/en/images/poster-AXA-M01-V03.jpg",
        "cc": [{
            "srclang": "",
            "src": ""
        }]
    },
    "_transcript": {
        "_inlineTranscript": true,
        "_externalTranscript": false,
        "inlineTranscriptButton": "",
        "inlineTranscriptCloseButton": "",
        "inlineTranscriptBody": "",
        "transcriptLinkButton": "",
        "transcriptLink": ""
    },
    "_playerOptions": {
        "poster": "",
        "showPosterWhenEnded": false,
        "defaultVideoWidth": 480,
        "defaultVideoHeight": 270,
        "videoWidth": -1,
        "videoHeight": -1,
        "defaultAudioWidth": 400,
        "defaultAudioHeight": 30,
        "defaultSeekBackwardInterval": "(media.duration * 0.05)",
        "defaultSeekForwardInterval": "(media.duration * 0.05)",
        "audioWidth": -1,
        "audioHeight": -1,
        "startVolume": 0.8,
        "loop": false,
        "autoRewind": true,
        "enableAutosize": true,
        "alwaysShowHours": false,
        "showTimecodeFrameCount": false,
        "framesPerSecond": 25,
        "autosizeProgress": true,
        "alwaysShowControls": false,
        "hideVideoControlsOnLoad": false,
        "clickToPlayPause": true,
        "iPadUseNativeControls": false,
        "iPhoneUseNativeControls": false,
        "AndroidUseNativeControls": false,
        "features": ["playpause", "current", "progress", "duration", "tracks", "volume", "fullscreen"],
        "isVideo": true,
        "enableKeyboard": true,
        "pauseOtherPlayers": true,
        "startLanguage": "",
        "tracksText": "mejs.i18n.t('Captions/Subtitles')",
        "hideCaptionsButtonWhenEmpty": true,
        "toggleCaptionsButtonWhenOnlyOne": false,
        "slidesSelector": ""
    },
    "_pageLevelProgress": {
        "_isEnabled": true
    }
},
{
    "_id": "c-elearning-07b",
    "_parentId": "b-elearning-07",
    "_type": "component",
    "_component": "text",
    "_classes": "component-below-media",
    "_layout": "full",
    "title": "",
    "displayTitle": "",
    "body": "<p>Descarga este documento para obtener más información:</p><a href='course/en/images/market_segmentation.pdf' target='_blank'><img class='pdf-img' src='course/en/images/pdf-icon.png' alt='pdf icon' width='60' height='60'>market_segmentation.pdf</a>",
    "instruction": "",
    "_isOptional": true,
    "_pageLevelProgress": {
        "_isEnabled": false
    }
},
{
    "_id": "c-elearning-08",
    "_parentId": "b-elearning-08",
    "_type": "component",
    "_component": "media",
    "_classes": "",
    "_layout": "full",
    "_comment": "_setCompletionOn = inview | play | ended",
    "_setCompletionOn": "ended",
    "_useClosedCaptions": false,
    "title": "&sdot; actividad 1",
    "displayTitle": "Qué necesitan nuestros clientes: Retail vs. Mass Market",
    "body": "",
    "instruction": "",
    "_media": {
        "mp4": "course/en/video/AXA-M01-V03b.mp4",
        "ogv": "",
        "poster": "course/en/images/poster-AXA-M01-V03b.jpg",
        "cc": [{
            "srclang": "",
            "src": ""
        }]
    },
    "_transcript": {
        "_inlineTranscript": true,
        "_externalTranscript": false,
        "inlineTranscriptButton": "",
        "inlineTranscriptCloseButton": "",
        "inlineTranscriptBody": "",
        "transcriptLinkButton": "",
        "transcriptLink": ""
    },
    "_playerOptions": {
        "poster": "",
        "showPosterWhenEnded": false,
        "defaultVideoWidth": 480,
        "defaultVideoHeight": 270,
        "videoWidth": -1,
        "videoHeight": -1,
        "defaultAudioWidth": 400,
        "defaultAudioHeight": 30,
        "defaultSeekBackwardInterval": "(media.duration * 0.05)",
        "defaultSeekForwardInterval": "(media.duration * 0.05)",
        "audioWidth": -1,
        "audioHeight": -1,
        "startVolume": 0.8,
        "loop": false,
        "autoRewind": true,
        "enableAutosize": true,
        "alwaysShowHours": false,
        "showTimecodeFrameCount": false,
        "framesPerSecond": 25,
        "autosizeProgress": true,
        "alwaysShowControls": false,
        "hideVideoControlsOnLoad": false,
        "clickToPlayPause": true,
        "iPadUseNativeControls": false,
        "iPhoneUseNativeControls": false,
        "AndroidUseNativeControls": false,
        "features": ["playpause", "current", "progress", "duration", "tracks", "volume", "fullscreen"],
        "isVideo": true,
        "enableKeyboard": true,
        "pauseOtherPlayers": true,
        "startLanguage": "",
        "tracksText": "mejs.i18n.t('Captions/Subtitles')",
        "hideCaptionsButtonWhenEmpty": true,
        "toggleCaptionsButtonWhenOnlyOne": false,
        "slidesSelector": ""
    },
    "_isOptional": true,
    "_pageLevelProgress": {
        "_isEnabled": false
    }
},
{
    "_id": "c-elearning-08b",
    "_parentId": "b-elearning-08",
    "_type": "component",
    "_component": "mcq",
    "_classes": "component-below-media",
    "_layout": "full",
    "_attempts": 2,
    "_shouldDisplayAttempts": false,
    "_questionWeight": 1,
    "_isRandom": false,
    "_selectable": 5,
    "title": "&sdot; actividad 1",
    "displayTitle": "Actividad",
    "body": "¿Cuáles de las opciones siguientes prefieren los clientes de Mass Market?",
    "instruction": "<i>Elige las respuestas correctas.</i>",
    "_items": [{
        "text": "Productos sencillos y fáciles de entender.",
        "_shouldBeSelected": true
    },
    {
        "text": "Servicio de calidad",
        "_shouldBeSelected": true,
        "feedback": "Comentarios sobre la opción dos incorrecta"
    },
    {
        "text": "Recompensar la fidelidad",
        "_shouldBeSelected": true
    },
    {
        "text": "Asesoramiento ocasional",
        "_shouldBeSelected": true
    },
    {
        "text": "Sencillez en la administración y la tramitación de siniestros.",
        "_shouldBeSelected": true
    }],
    "_feedback": {
        "correct": "¡Correcto!<br><br>Has marcado todas. ¡Bien hecho! Al igual que el segmento minorista (retail), el de Mass Market es adecuado para soluciones personalizadas y digitalizadas. En otras palabras, podemos determinar los servicios que necesitan todos los clientes de este segmento conociéndolos más a fondo y compartiendo buenas prácticas con el uso de la tecnología.<br><br>La personalización a gran escala nos permite, como business protector, realizar tareas diferentes e importantes, centrándonos siempre en el cliente.",
        "_incorrect": {
            "notFinal": "Inténtalo de nuevo.",
            "final": "No es correcto.<br><br>Deberías haber marcado todas. Al igual que el segmento minorista (retail), el de Mass Market es adecuado para soluciones personalizadas y digitalizadas. En otras palabras, podemos determinar los servicios que necesitan todos los clientes de este segmento conociéndolos más a fondo y compartiendo buenas prácticas con el uso de la tecnología.<br><br>La personalización a gran escala nos permite, como business protector, realizar tareas diferentes e importantes, centrándonos siempre en el cliente."
        }
    },
    "_pageLevelProgress": {
        "_isEnabled": true
    }
},
{
    "_id": "c-elearning-10",
    "_parentId": "b-elearning-10",
    "_type": "component",
    "_component": "media",
    "_classes": "",
    "_layout": "full",
    "_comment": "_setCompletionOn = inview | play | ended",
    "_setCompletionOn": "ended",
    "_useClosedCaptions": false,
    "title": "&sdot; vídeo 2",
    "displayTitle": "Qué necesitan nuestros clientes: modelo de madurez de marketing.",
    "body": "AXA está desarrollando un Marketing Maturity Model para conocer mejor a nuestros clientes de PYMES y ajustar sus necesidades a nuestra propuesta de valores.",
    "instruction": "",
    "_media": {
        "mp4": "course/en/video/AXA-M01-V03c.mp4",
        "ogv": "",
        "poster": "course/en/images/poster-AXA-M01-V03c.jpg",
        "cc": [{
            "srclang": "",
            "src": ""
        }]
    },
    "_transcript": {
        "_inlineTranscript": true,
        "_externalTranscript": false,
        "inlineTranscriptButton": "",
        "inlineTranscriptCloseButton": "",
        "inlineTranscriptBody": "",
        "transcriptLinkButton": "",
        "transcriptLink": ""
    },
    "_playerOptions": {
        "poster": "",
        "showPosterWhenEnded": false,
        "defaultVideoWidth": 480,
        "defaultVideoHeight": 270,
        "videoWidth": -1,
        "videoHeight": -1,
        "defaultAudioWidth": 400,
        "defaultAudioHeight": 30,
        "defaultSeekBackwardInterval": "(media.duration * 0.05)",
        "defaultSeekForwardInterval": "(media.duration * 0.05)",
        "audioWidth": -1,
        "audioHeight": -1,
        "startVolume": 0.8,
        "loop": false,
        "autoRewind": true,
        "enableAutosize": true,
        "alwaysShowHours": false,
        "showTimecodeFrameCount": false,
        "framesPerSecond": 25,
        "autosizeProgress": true,
        "alwaysShowControls": false,
        "hideVideoControlsOnLoad": false,
        "clickToPlayPause": true,
        "iPadUseNativeControls": false,
        "iPhoneUseNativeControls": false,
        "AndroidUseNativeControls": false,
        "features": ["playpause", "current", "progress", "duration", "tracks", "volume", "fullscreen"],
        "isVideo": true,
        "enableKeyboard": true,
        "pauseOtherPlayers": true,
        "startLanguage": "",
        "tracksText": "mejs.i18n.t('Captions/Subtitles')",
        "hideCaptionsButtonWhenEmpty": true,
        "toggleCaptionsButtonWhenOnlyOne": false,
        "slidesSelector": ""
    },
    "_pageLevelProgress": {
        "_isEnabled": true
    }
},
{
    "_id": "c-elearning-10b",
    "_parentId": "b-elearning-10",
    "_type": "component",
    "_component": "text",
    "_classes": "component-below-media",
    "_layout": "full",
    "title": "",
    "displayTitle": "",
    "body": "<p>Descarga este documento para obtener más información:</p><a href='course/en/images/marketing_maturity_model.pdf' target='_blank'><img class='pdf-img' src='course/en/images/pdf-icon.png' alt='pdf icon' width='60' height='60'>marketing_maturity_model.pdf</a>",
    "instruction": "",
    "_isOptional": true,
    "_pageLevelProgress": {
        "_isEnabled": false
    }
},
{
    "_id": "c-elearning-11",
    "_parentId": "b-elearning-11",
    "_type": "component",
    "_component": "text",
    "_classes": "",
    "_layout": "full",
    "title": "AXA COMO BUSINESS PROTECTOR",
    "displayTitle": "",
    "body": "<h3 class='lightgreen'>Quiénes son nuestros clientes.</h3><h3 class='lightgreen'>Qué necesitan nuestros clientes.</h3><div class='green'>SIGUIENTE TEMA.<br><h3 class='current-topic'>AXA como business protector.</h3></div><h3 class='lightgreen'>El distribuidor como cliente.</h3>",
    "instruction": "",
    "_pageLevelProgress": {
        "_isEnabled": true
    }
},
{
    "_id": "c-elearning-12",
    "_parentId": "b-elearning-12",
    "_type": "component",
    "_component": "media",
    "_classes": "",
    "_layout": "full",
    "_comment": "_setCompletionOn = inview | play | ended",
    "_setCompletionOn": "ended",
    "_useClosedCaptions": false,
    "title": "&sdot; vídeo 1",
    "displayTitle": "AXA COMO BUSINESS PROTECTOR",
    "body": "",
    "instruction": "",
    "_media": {
        "mp4": "course/en/video/AXA-M01-V04.mp4",
        "ogv": "",
        "poster": "course/en/images/poster-AXA-M01-V04.jpg",
        "cc": [{
            "srclang": "",
            "src": ""
        }]
    },
    "_transcript": {
        "_inlineTranscript": true,
        "_externalTranscript": false,
        "inlineTranscriptButton": "",
        "inlineTranscriptCloseButton": "",
        "inlineTranscriptBody": "",
        "transcriptLinkButton": "",
        "transcriptLink": ""
    },
    "_playerOptions": {
        "poster": "",
        "showPosterWhenEnded": false,
        "defaultVideoWidth": 480,
        "defaultVideoHeight": 270,
        "videoWidth": -1,
        "videoHeight": -1,
        "defaultAudioWidth": 400,
        "defaultAudioHeight": 30,
        "defaultSeekBackwardInterval": "(media.duration * 0.05)",
        "defaultSeekForwardInterval": "(media.duration * 0.05)",
        "audioWidth": -1,
        "audioHeight": -1,
        "startVolume": 0.8,
        "loop": false,
        "autoRewind": true,
        "enableAutosize": true,
        "alwaysShowHours": false,
        "showTimecodeFrameCount": false,
        "framesPerSecond": 25,
        "autosizeProgress": true,
        "alwaysShowControls": false,
        "hideVideoControlsOnLoad": false,
        "clickToPlayPause": true,
        "iPadUseNativeControls": false,
        "iPhoneUseNativeControls": false,
        "AndroidUseNativeControls": false,
        "features": ["playpause", "current", "progress", "duration", "tracks", "volume", "fullscreen"],
        "isVideo": true,
        "enableKeyboard": true,
        "pauseOtherPlayers": true,
        "startLanguage": "",
        "tracksText": "mejs.i18n.t('Captions/Subtitles')",
        "hideCaptionsButtonWhenEmpty": true,
        "toggleCaptionsButtonWhenOnlyOne": false,
        "slidesSelector": ""
    },
    "_pageLevelProgress": {
        "_isEnabled": true
    }
},
{
    "_id": "c-elearning-13",
    "_parentId": "b-elearning-13",
    "_type": "component",
    "_component": "media",
    "_classes": "",
    "_layout": "full",
    "_comment": "_setCompletionOn = inview | play | ended",
    "_setCompletionOn": "ended",
    "_useClosedCaptions": false,
    "title": "&sdot; actividad 1",
    "displayTitle": "AXA como protector del negocio: escucha a tu cliente",
    "body": "<p>Para prestar un mejor servicio al cliente, tienes que escucharle. ¿Sabes cómo hacerlo? Es más fácil de decir que de hacer. La capacidad de escuchar es importante, pero no siempre intuitiva.<br><br>En el siguiente ejercicio, te pondrás en la piel del cliente para poder escucharle.<br><br>¿Empezamos?</p>",
    "instruction": "",
    "_media": {
        "mp4": "course/en/video/AXA-M01-V05.mp4",
        "ogv": "",
        "poster": "course/en/images/poster-AXA-M01-V05.jpg",
        "cc": [{
            "srclang": "",
            "src": ""
        }]
    },
    "_transcript": {
        "_inlineTranscript": true,
        "_externalTranscript": false,
        "inlineTranscriptButton": "",
        "inlineTranscriptCloseButton": "",
        "inlineTranscriptBody": "",
        "transcriptLinkButton": "",
        "transcriptLink": ""
    },
    "_playerOptions": {
        "poster": "",
        "showPosterWhenEnded": false,
        "defaultVideoWidth": 480,
        "defaultVideoHeight": 270,
        "videoWidth": -1,
        "videoHeight": -1,
        "defaultAudioWidth": 400,
        "defaultAudioHeight": 30,
        "defaultSeekBackwardInterval": "(media.duration * 0.05)",
        "defaultSeekForwardInterval": "(media.duration * 0.05)",
        "audioWidth": -1,
        "audioHeight": -1,
        "startVolume": 0.8,
        "loop": false,
        "autoRewind": true,
        "enableAutosize": true,
        "alwaysShowHours": false,
        "showTimecodeFrameCount": false,
        "framesPerSecond": 25,
        "autosizeProgress": true,
        "alwaysShowControls": false,
        "hideVideoControlsOnLoad": false,
        "clickToPlayPause": true,
        "iPadUseNativeControls": false,
        "iPhoneUseNativeControls": false,
        "AndroidUseNativeControls": false,
        "features": ["playpause", "current", "progress", "duration", "tracks", "volume", "fullscreen"],
        "isVideo": true,
        "enableKeyboard": true,
        "pauseOtherPlayers": true,
        "startLanguage": "",
        "tracksText": "mejs.i18n.t('Captions/Subtitles')",
        "hideCaptionsButtonWhenEmpty": true,
        "toggleCaptionsButtonWhenOnlyOne": false,
        "slidesSelector": ""
    },
    "_pageLevelProgress": {
        "_isEnabled": true
    }
},
{
    "_id": "c-elearning-14",
    "_parentId": "b-elearning-14",
    "_type": "component",
    "_component": "text",
    "_classes": "",
    "_layout": "full",
    "title": "&sdot; actividad: escucha a tu cliente 1",
    "displayTitle": "ESCUCHA A TU CLIENTE: INTRODUCCIÓN",
    "body": "Como cliente, querrás proteger tu negocio de la mejor manera posible.<br><br>Recuerda que vas a instalar un nuevo sistema de filtrado de aire en tu pastelería y quieres asegurarlo.<br><br>Así que...",
    "instruction": "<i>Continúa para saber lo que ocurre.</i>",
    "_isOptional": true,
    "_pageLevelProgress": {
        "_isEnabled": false
    }
},
{
    "_id": "c-elearning-15",
    "_parentId": "b-elearning-15",
    "_type": "component",
    "_component": "graphic",
    "_classes": "",
    "_layout": "full",
    "title": "&sdot; actividad: escucha a tu cliente 2",
    "displayTitle": "ESCUCHA A TU CLIENTE: MEDIADOR A",
    "body": "",
    "instruction": "<i>Reúnete con el mediador A y luego continúa para saber más.</i>",
    "_graphic": {
        "alt": "escucha-a-tu-cliente-01",
        "large": "course/en/images/listen-to-your-client-01.png",
        "small": "course/en/images/listen-to-your-client-01-xs.png",
        "attribution": ""
    },
    "_isOptional": true,
    "_pageLevelProgress": {
        "_isEnabled": false
    }
},
{
    "_id": "c-elearning-16",
    "_parentId": "b-elearning-16",
    "_type": "component",
    "_component": "graphic",
    "_classes": "",
    "_layout": "full",
    "title": "&sdot; actividad: escucha a tu cliente 3",
    "displayTitle": "ESCUCHA A TU CLIENTE: MEDIADOR B",
    "body": "",
    "instruction": "<i>Ahora, reúnete con el mediador B y luego continua a la opción.</i>",
    "_graphic": {
        "alt": "escucha-a-tu-cliente-02",
        "large": "course/en/images/listen-to-your-client-02.png",
        "small": "course/en/images/listen-to-your-client-02-xs.png",
        "attribution": ""
    },
    "_isOptional": true,
    "_pageLevelProgress": {
        "_isEnabled": false
    }
},
{
    "_id": "c-elearning-17",
    "_parentId": "b-elearning-17",
    "_type": "component",
    "_component": "graphic",
    "_classes": "",
    "_layout": "full",
    "title": "&sdot; actividad: escucha a tu cliente 4",
    "displayTitle": "ESCUCHA A TU CLIENTE: TOMA UNA DECISIÓN",
    "body": "",
    "instruction": "",
    "_graphic": {
        "alt": "No tienes mucho tiempo. ¿Qué haces?",
        "large": "course/en/images/listen-to-your-client-03.png",
        "small": "course/en/images/listen-to-your-client-03-xs.png",
        "attribution": ""
    },
    "_isOptional": true,
    "_pageLevelProgress": {
        "_isEnabled": false
    }
},
{
    "_id": "c-elearning-17b",
    "_parentId": "b-elearning-17",
    "_type": "component",
    "_component": "accordion",
    "_classes": "component-below-media",
    "_layout": "full",
    "title": "actividad: escucha a tu cliente 4",
    "displayTitle": "",
    "body": "",
    "instruction": "<i>Escoge al mediador que consideras mejor para ti.</i>",
    "_items": [{
        "title": "OPCIÓN 1 - MEDIADOR A",
        "body": "<img class='img-responsive img-small-device' src='course/en/images/listen-to-your-client-04-xs.png' alt='CHOICE 1 - BROKER A' width='600'><img class='img-responsive img-medium-device' src='course/en/images/listen-to-your-client-04.png' alt='CHOICE 1 - BROKER A' width='640'>"
    },
    {
        "title": "OPCIÓN 2 - MEDIADOR B",
        "body": "<img class='img-responsive img-small-device' src='course/en/images/listen-to-your-client-05-xs.png' alt='CHOICE 1 - BROKER B' width='600'><img class='img-responsive img-medium-device' src='course/en/images/listen-to-your-client-05.png' alt='CHOICE 2 - BROKER B' width='640'>"
    }],
    "_isOptional": true,
    "_pageLevelProgress": {
        "_isEnabled": false
    }
},
{
    "_id": "c-elearning-18",
    "_parentId": "b-elearning-18",
    "_type": "component",
    "_component": "text",
    "_classes": "",
    "_layout": "full",
    "title": "&sdot; actividad: escucha a tu cliente 5",
    "displayTitle": "ESCUCHA A TU CLIENTE: CONCLUSIÓN",
    "body": "Sabemos que no se trata solo de la póliza, sino también del negocio, su prevención y protección.<br><br>Comprender las necesidades del cliente en profundidad nos permite incluso plantearle al cliente temas relacionados con su protección que no tenía en cuenta o desconocía.<br><br>La única forma de comportarse como Business protector es tener claras las necesidades del cliente.",
    "instruction": "",
    "_isOptional": true,
    "_pageLevelProgress": {
        "_isEnabled": false
    }
},
{
    "_id": "c-elearning-19",
    "_parentId": "b-elearning-19",
    "_type": "component",
    "_component": "text",
    "_classes": "",
    "_layout": "full",
    "title": "EL DISTRIBUIDOR COMO CLIENTE",
    "displayTitle": "",
    "body": "<h3 class='lightgreen'>Quiénes son nuestros clientes.</h3><h3 class='lightgreen'>Qué necesitan nuestros clientes.</h3><h3 class='lightgreen'>AXA como business protector.</h3><div class='green'>SIGUIENTE TEMA.<br><h3 class='current-topic'>El distribuidor como cliente.</h3></div>",
    "instruction": "",
    "_pageLevelProgress": {
        "_isEnabled": true
    }
},
{
    "_id": "c-elearning-20",
    "_parentId": "b-elearning-20",
    "_type": "component",
    "_component": "media",
    "_classes": "",
    "_layout": "full",
    "_comment": "_setCompletionOn = inview | play | ended",
    "_setCompletionOn": "ended",
    "_useClosedCaptions": false,
    "title": "&sdot; vídeo 1",
    "displayTitle": "EL DISTRIBUIDOR COMO CLIENTE",
    "body": "",
    "instruction": "",
    "_media": {
        "mp4": "course/en/video/AXA-M01-V06.mp4",
        "ogv": "",
        "poster": "course/en/images/poster-AXA-M01-V06.jpg",
        "cc": [{
            "srclang": "",
            "src": ""
        }]
    },
    "_transcript": {
        "_inlineTranscript": true,
        "_externalTranscript": false,
        "inlineTranscriptButton": "",
        "inlineTranscriptCloseButton": "",
        "inlineTranscriptBody": "",
        "transcriptLinkButton": "",
        "transcriptLink": ""
    },
    "_playerOptions": {
        "poster": "",
        "showPosterWhenEnded": false,
        "defaultVideoWidth": 480,
        "defaultVideoHeight": 270,
        "videoWidth": -1,
        "videoHeight": -1,
        "defaultAudioWidth": 400,
        "defaultAudioHeight": 30,
        "defaultSeekBackwardInterval": "(media.duration * 0.05)",
        "defaultSeekForwardInterval": "(media.duration * 0.05)",
        "audioWidth": -1,
        "audioHeight": -1,
        "startVolume": 0.8,
        "loop": false,
        "autoRewind": true,
        "enableAutosize": true,
        "alwaysShowHours": false,
        "showTimecodeFrameCount": false,
        "framesPerSecond": 25,
        "autosizeProgress": true,
        "alwaysShowControls": false,
        "hideVideoControlsOnLoad": false,
        "clickToPlayPause": true,
        "iPadUseNativeControls": false,
        "iPhoneUseNativeControls": false,
        "AndroidUseNativeControls": false,
        "features": ["playpause", "current", "progress", "duration", "tracks", "volume", "fullscreen"],
        "isVideo": true,
        "enableKeyboard": true,
        "pauseOtherPlayers": true,
        "startLanguage": "",
        "tracksText": "mejs.i18n.t('Captions/Subtitles')",
        "hideCaptionsButtonWhenEmpty": true,
        "toggleCaptionsButtonWhenOnlyOne": false,
        "slidesSelector": ""
    },
    "_pageLevelProgress": {
        "_isEnabled": true
    }
},
{
    "_id": "c-elearning-21",
    "_parentId": "b-elearning-21",
    "_type": "component",
    "_component": "text",
    "_classes": "",
    "_layout": "full",
    "title": "NUEVA TERMINOLOGÍA",
    "displayTitle": "",
    "body": "<p>Se decidió cambiar la terminología para los segmentos del mercado cuando el curso ya se había completado. Por tanto, presta atención a lo siguiente:</p><img class='img-responsive' src='course/en/images/new-terminology.png' alt='new terminology' width='640'><p><ul><li>Las PYMES de mercado a gran escala se han convertido en PYMES y están relacionadas con todo lo que es y será «minorista».. Los grupos empresariales son todos los negocios relacionados con las Soluciones Corporativas AXA.. Lo que queda entre ambos es el mercado intermedio.. <p>Se decidió cambiar la terminología para los segmentos del mercado cuando el curso ya se había completado. Por tanto, presta atención a lo siguiente:</p><img class='img-responsive' src='course/en/images/new-terminology.png' alt='new terminology' width='640'><p><ul><li>Las PYMES de mercado a gran escala se han convertido en PYMES y están relacionadas con todo lo que es y será «minorista».. Los grupos empresariales son todos los negocios relacionados con las Soluciones Corporativas AXA.. Lo que queda entre ambos es el mercado intermedio.. <p>Se decidió cambiar la terminología para los segmentos del mercado cuando el curso ya se había completado. Por tanto, presta atención a lo siguiente:</p><img class='img-responsive' src='course/en/images/new-terminology.png' alt='new terminology' width='640'><p><ul><li>Las PYMES de mercado a gran escala se han convertido en PYMES y están relacionadas con todo lo que es y será «minorista».. Los grupos empresariales son todos los negocios relacionados con las Soluciones Corporativas AXA.. Lo que queda entre ambos es el mercado intermedio.. <p>Se decidió cambiar la terminología para los segmentos del mercado cuando el curso ya se había completado. Por tanto, presta atención a lo siguiente:</p><img class='img-responsive' src='course/en/images/new-terminology.png' alt='new terminology' width='640'><p><ul><li>Las PYMES de mercado a gran escala se han convertido en PYMES y están relacionadas con todo lo que es y será «minorista».. Los grupos empresariales son todos los negocios relacionados con las Soluciones Corporativas AXA.. Lo que queda entre ambos es el mercado intermedio.. <p>Se decidió cambiar la terminología para los segmentos del mercado cuando el curso ya se había completado. Por tanto, presta atención a lo siguiente:</p><img class='img-responsive' src='course/en/images/new-terminology.png' alt='new terminology' width='640'><p><ul><li>Las PYMES de mercado a gran escala se han convertido en PYMES y están relacionadas con todo lo que es y será «minorista».. Los grupos empresariales son todos los negocios relacionados con las Soluciones Corporativas AXA.. Lo que queda entre ambos es el mercado intermedio.. <p>Se decidió cambiar la terminología para los segmentos del mercado cuando el curso ya se había completado. Por tanto, presta atención a lo siguiente:</p><img class='img-responsive' src='course/en/images/new-terminology.png' alt='new terminology' width='640'><p><ul><li>Las PYMES de mercado a gran escala se han convertido en PYMES y están relacionadas con todo lo que es y será «minorista».. Los grupos empresariales son todos los negocios relacionados con las Soluciones Corporativas AXA.. Lo que queda entre ambos es el mercado intermedio.. <p>Se decidió cambiar la terminología para los segmentos del mercado cuando el curso ya se había completado. Por tanto, presta atención a lo siguiente:</p><img class='img-responsive' src='course/en/images/new-terminology.png' alt='new terminology' width='640'><p><ul><li>Las PYMES de mercado a gran escala se han convertido en PYMES y están relacionadas con todo lo que es y será «minorista».. Los grupos empresariales son todos los negocios relacionados con las Soluciones Corporativas AXA.. Lo que queda entre ambos es el mercado intermedio.. <p>Se decidió cambiar la terminología para los segmentos del mercado cuando el curso ya se había completado. Por tanto, presta atención a lo siguiente:</p><img class='img-responsive' src='course/en/images/new-terminology.png' alt='new terminology' width='640'><p><ul><li>Las PYMES de mercado a gran escala se han convertido en PYMES y están relacionadas con todo lo que es y será «minorista».. Los grupos empresariales son todos los negocios relacionados con las Soluciones Corporativas AXA.. Lo que queda entre ambos es el mercado intermedio..",
    "instruction": "",
    "_pageLevelProgress": {
        "_isEnabled": true
    }
},
{
    "_id": "c-quiz-01",
    "_parentId": "b-quiz-01",
    "_type": "component",
    "_component": "textinput",
    "_classes": "",
    "_layout": "full",
    "title": "Pregunta 1",
    "displayTitle": "Pregunta 1",
    "body": "Elige entre los siguientes términos: <strong>versátil, servicial, leal, exigente, fiable</strong>",
    "instruction": "<i>Introduce en cada espacio el término más adecuado de la lista.</i>",
    "_attempts": 2,
    "_allowsAnyCase": true,
    "_allowsPunctuation": true,
    "_questionWeight": 10,
    "_feedback": {
        "correct": "¡Correcto!<br><br>El cliente tiene cada vez más poder, con mucha información y numerosas opciones a su disposición. Los clientes desean mayores incentivos para quedarse con un proveedor. A la vez, la tecnología también permite a la aseguradora dedicar tiempo a tareas que ofrecen más valor añadido.",
        "_incorrect": {
            "notFinal": "Inténtalo de nuevo.",
            "final": "No es correcto.<br><br>El cliente tiene cada vez más poder, con mucha información y numerosas opciones a su disposición. Los clientes desean mayores incentivos para quedarse con un proveedor. A la vez, la tecnología también permite a la aseguradora dedicar tiempo a tareas que ofrecen más valor añadido."
        }
    },
    "_answers": [
        ["loyal"],
        ["demanding"],
        ["versatile"]
    ],
    "_items": [{
        "prefix": "Al igual que en el sector minorista (retail), el de Mass Market debe recompensar al cliente por ser…",
        "suffix": ".",
        "placeholder": "Introduce tu respuesta aquí"
    },
    {
        "prefix": "Cambiar la tecnología suele hacer al cliente más",
        "suffix": ".",
        "placeholder": "Introduce tu respuesta aquí"
    },
    {
        "prefix": "Al mismo tiempo, la tecnología permite a la aseguradora ser más",
        "suffix": ".",
        "placeholder": "Introduce tu respuesta aquí"
    }],
    "_pageLevelProgress": {
        "_isEnabled": true
    }
},
{
    "_id": "c-quiz-02",
    "_parentId": "b-quiz-02",
    "_type": "component",
    "_component": "textinput",
    "_classes": "",
    "_layout": "full",
    "title": "Pregunta 2",
    "displayTitle": "Pregunta 2",
    "body": "¿Qué quieren TODOS los clientes cuando escogen su seguro?",
    "instruction": "<i>Introduce una palabra en el espacio.</i>",
    "_attempts": 2,
    "_allowsAnyCase": true,
    "_allowsPunctuation": true,
    "_questionWeight": 10,
    "_feedback": {
        "correct": "¡Correcto!<br><br>Los clientes pretenden proteger su medio de vida, y AXA no quiere ser solo un proveedor de seguros, también queremos ser business protector.",
        "_incorrect": {
            "notFinal": "Inténtalo de nuevo.",
            "final": "No es correcto.<br><br>Los clientes pretenden proteger su medio de vida y AXA no quiere ser solo un proveedor de seguros, también queremos ser business protector."
        }
    },
    "_answers": [
        ["protection", "protecting"]
    ],
    "_items": [{
        "prefix": "",
        "suffix": "",
        "placeholder": "Introduce tu respuesta aquí"
    }],
    "_pageLevelProgress": {
        "_isEnabled": true
    }
},
{
    "_id": "c-quiz-03",
    "_parentId": "b-quiz-03",
    "_type": "component",
    "_component": "mcq",
    "_classes": "",
    "_layout": "full",
    "_attempts": 2,
    "_shouldDisplayAttempts": false,
    "_questionWeight": 1,
    "_isRandom": false,
    "_selectable": 1,
    "title": "Pregunta 3",
    "displayTitle": "Pregunta 3",
    "body": "¿A qué parte describen las siguientes frases?<br><br><strong>- En primera línea de atención al cliente, más que entre bastidores<br><br>- Constituye el 80 % de los contratos firmados en el sector Mass Market<br><br>- No es solo un intermediario, conoce bien las necesidades del cliente</strong>",
    "instruction": "<i>Elige la respuesta correcta.<i>",
    "_items": [{
        "text": "el distribuidor.",
        "_shouldBeSelected": true
    },
    {
        "text": "el suscriptor",
        "_shouldBeSelected": false,
        "feedback": "No es correcto, pero el suscriptor desempeña un papel muy importante y cada vez interactúa más con el cliente."
    },
    {
        "text": "el departamento de siniestros",
        "_shouldBeSelected": false
    },
    {
        "text": "el minorista",
        "_shouldBeSelected": false
    }],
    "_feedback": {
        "correct": "¡Correcto!<br><br>El distribuidor no es solo un intermediario.",
        "_incorrect": {
            "notFinal": "Inténtalo de nuevo.",
            "final": "No es correcto.<br><br>Es el distribuidor."
        }
    },
    "_pageLevelProgress": {
        "_isEnabled": true
    }
},
{
    "_id": "c-quiz-04",
    "_parentId": "b-quiz-04",
    "_classes": "",
    "_layout": "full",
    "_type": "component",
    "_component": "matching",
    "_attempts": 2,
    "_shouldDisplayAttempts": false,
    "_isRandom": true,
    "_questionWeight": 10,
    "title": "Pregunta 4",
    "displayTitle": "Pregunta 4",
    "body": "",
    "instruction": "<i>¿Las siguientes afirmaciones son verdaderas o falsas?</i>",
    "_feedback": {
        "correct": "¡Correcto!<br><br>En el segmento Mass Market el seguro puede ser un producto sencillo con un proceso sencillo, igual que en el sector minorista.",
        "_incorrect": {
            "notFinal": "Inténtalo de nuevo.",
            "final": "No es correcto.<br><br>En el segmento Mass Market el seguro puede ser un producto sencillo con un proceso sencillo, igual que en el sector minorista."
        }
    },
    "placeholder": "selecciona una opción",
    "_items": [{
        "text": "Los clientes Mass Market se parecen a los minoristas en que ambos exigen un servicio de calidad.",
        "_options": [{
            "text": "Verdadero",
            "_isCorrect": true
        },
        {
            "text": "Falso",
            "_isCorrect": false
        }]
    },
    {
        "text": "Los clientes minoristas esperan sencillez en sus productos y en el papeleo asociado, pero los seguros son demasiado complicados para que los clientes de Mass Market obtengan la misma sencillez.",
        "_options": [{
            "text": "Verdadero",
            "_isCorrect": false
        },
        {
            "text": "Falso",
            "_isCorrect": true
        }]
    }],
    "_pageLevelProgress": {
        "_isEnabled": true
    }
},
{
    "_id": "c-quiz-05",
    "_parentId": "b-quiz-05",
    "_type": "component",
    "_component": "mcq",
    "_classes": "",
    "_layout": "full",
    "_attempts": 2,
    "_shouldDisplayAttempts": false,
    "_questionWeight": 1,
    "_isRandom": false,
    "_selectable": 1,
    "title": "Pregunta 5",
    "displayTitle": "Pregunta 5",
    "body": "¿Por qué es importante para AXA la personalización a gran escala?",
    "instruction": "<i>Elige la respuesta correcta.</i>",
    "_items": [{
        "text": "Hay un gran potencial de crecimiento, solo las PYMES constituyen el 90% de las empresas mundiales.",
        "_shouldBeSelected": true
    },
    {
        "text": "Prácticamente todas las empresas tienen las mismas necesidades en términos de protección, así que las aseguradoras no deben perder tiempo en intentar adaptarse a cada una de ellas",
        "_shouldBeSelected": false,
        "feedback": "No es correcto.<br><br>La personalización es importante, pero la mayor parte de ella podemos llevarla a cabo de forma inteligente y digitalizada."
    },
    {
        "text": "La tecnología está sustituyendo a las personas y dejando obsoletos determinados puestos.",
        "_shouldBeSelected": false,
        "feedback": "No es correcto.<br><br>De hecho está haciendo que ciertos perfiles mejoren sus cualidades profesionales."
    }],
    "_feedback": {
        "correct": "¡Correcto!<br><br>Necesitamos penetrar en el Mass Market para crecer.",
        "_incorrect": {
            "notFinal": "Inténtalo de nuevo.",
            "final": "No es correcto."
        }
    },
    "_pageLevelProgress": {
        "_isEnabled": true
    }
},
{
    "_id": "c-quiz-06",
    "_parentId": "b-quiz-06",
    "_classes": "",
    "_layout": "full",
    "_type": "component",
    "_component": "matching",
    "_attempts": 2,
    "_shouldDisplayAttempts": false,
    "_isRandom": true,
    "_questionWeight": 10,
    "title": "Pregunta 6",
    "displayTitle": "Pregunta 6",
    "body": "",
    "instruction": "<i>Marca cada pregunta como verdadera o falsa.</i>",
    "_feedback": {
        "correct": "¡Correcto!",
        "_incorrect": {
            "notFinal": "Inténtalo de nuevo.",
            "final": "No es correcto. Ambas afirmaciones son ciertas."
        }
    },
    "placeholder": "selecciona una opción",
    "_items": [{
        "text": "Para poder realizar una personalización a gran escala, las aseguradoras necesitan mucha información de sus cliente.",
        "_options": [{
            "text": "Verdadero",
            "_isCorrect": false
        },
        {
            "text": "Falso",
            "_isCorrect": true
        }]
    },
    {
        "text": "La personalización a gran escala permite a la aseguradora satisfacer las necesidades específicas de los clientes.",
        "_options": [{
            "text": "Verdadero",
            "_isCorrect": false
        },
        {
            "text": "Falso",
            "_isCorrect": true
        }]
    }],
    "_pageLevelProgress": {
        "_isEnabled": true
    }
},
{
    "_id": "c-quiz-07",
    "_parentId": "b-quiz-07",
    "_type": "component",
    "_component": "mcq",
    "_classes": "true-or-false",
    "_layout": "full",
    "_attempts": 1,
    "_shouldDisplayAttempts": false,
    "_questionWeight": 1,
    "_isRandom": false,
    "_selectable": 1,
    "title": "Pregunta 7.a",
    "displayTitle": "Pregunta 7",
    "body": "En términos de seguros y siniestros, ¿comparten los segmentos Mass Market y Corporate las siguientes características?",
    "instruction": "a. comunicación online las 24 horas, todos los días",
    "_items": [{
        "text": "Sí",
        "_shouldBeSelected": true
    },
    {
        "text": "No",
        "_shouldBeSelected": false
    }],
    "_feedback": {
        "correct": "¡Correcto!<br><br>Los clientes pueden acceder a la información cuando la necesiten.",
        "_incorrect": {
            "notFinal": "Inténtalo de nuevo.",
            "final": "No es correcto.<br><br>Los clientes pueden acceder a la información cuando la necesiten."
        }
    },
    "_pageLevelProgress": {
        "_isEnabled": true
    }
},
{
    "_id": "c-quiz-07b",
    "_parentId": "b-quiz-07",
    "_type": "component",
    "_component": "mcq",
    "_classes": "true-or-false",
    "_layout": "full",
    "_attempts": 1,
    "_shouldDisplayAttempts": false,
    "_questionWeight": 1,
    "_isRandom": false,
    "_selectable": 1,
    "title": "Pregunta 7.b",
    "displayTitle": "",
    "body": "",
    "instruction": "b. Herramientas digitales y de formación tanto B2B como B2C",
    "_items": [{
        "text": "Sí",
        "_shouldBeSelected": true
    },
    {
        "text": "No",
        "_shouldBeSelected": false
    }],
    "_feedback": {
        "correct": "¡Correcto!<br><br>La excelencia técnica es esencial.",
        "_incorrect": {
            "notFinal": "Inténtalo de nuevo.",
            "final": "No es correcto.<br><br>La excelencia técnica es esencial."
        }
    },
    "_pageLevelProgress": {
        "_isEnabled": true
    }
},
{
    "_id": "c-quiz-07c",
    "_parentId": "b-quiz-07",
    "_type": "component",
    "_component": "mcq",
    "_classes": "true-or-false",
    "_layout": "full",
    "_attempts": 1,
    "_shouldDisplayAttempts": false,
    "_questionWeight": 1,
    "_isRandom": false,
    "_selectable": 1,
    "title": "Pregunta 7.c",
    "displayTitle": "",
    "body": "",
    "instruction": "c. Ofertas de paquetes sencillos que ofrezcan la percepción de personalización",
    "_items": [{
        "text": "Sí",
        "_shouldBeSelected": false
    },
    {
        "text": "No",
        "_shouldBeSelected": true
    }],
    "_feedback": {
        "correct": "¡Correcto!<br><br>Las ofertas están diseñadas a medida de las necesidades del sector Corporate",
        "_incorrect": {
            "notFinal": "",
            "final": "No es correcto.<br><br>Las ofertas están diseñadas a medida de las necesidades del sector Corporate"
        }
    },
    "_pageLevelProgress": {
        "_isEnabled": true
    }
},
{
    "_id": "c-quiz-07d",
    "_parentId": "b-quiz-07",
    "_type": "component",
    "_component": "mcq",
    "_classes": "true-or-false",
    "_layout": "full",
    "_attempts": 1,
    "_shouldDisplayAttempts": false,
    "_questionWeight": 1,
    "_isRandom": false,
    "_selectable": 1,
    "title": "Pregunta 7.d",
    "displayTitle": "",
    "body": "",
    "instruction": "d. Gestión electrónica integral de siniestros y rapidez de liquidación",
    "_items": [{
        "text": "",
        "_shouldBeSelected": false
    },
    {
        "text": "",
        "_shouldBeSelected": true
    }],
    "_feedback": {
        "correct": "¡Correcto!<br><br>El sector Corporate requiere un único punto de contacto para la tramitación de siniestros.",
        "_incorrect": {
            "notFinal": "",
            "final": "No es correcto. <br><br>El sector Corporate requiere un único punto de contacto para la tramitación de siniestros."
        }
    },
    "_pageLevelProgress": {
        "_isEnabled": true
    }
},
{
    "_id": "c-quiz-07e",
    "_parentId": "b-quiz-07",
    "_type": "component",
    "_component": "mcq",
    "_classes": "true-or-false",
    "_layout": "full",
    "_attempts": 1,
    "_shouldDisplayAttempts": false,
    "_questionWeight": 1,
    "_isRandom": false,
    "_selectable": 1,
    "title": "",
    "displayTitle": "",
    "body": "",
    "instruction": "e. Equipos especializados que reportan y hacen un seguimiento regular de este segmento.",
    "_items": [{
        "text": "Sí",
        "_shouldBeSelected": true
    },
    {
        "text": "No",
        "_shouldBeSelected": false
    }],
    "_feedback": {
        "correct": "¡Correcto!<br><br>Las relaciones cara a cara con el cliente son esenciales cuando se trata de proteger su medio de vida.",
        "_incorrect": {
            "notFinal": "",
            "final": "No es correcto. <br><br>Las relaciones cara a cara con el cliente son esenciales cuando se trata de proteger su medio de vida."
        }
    },
    "_pageLevelProgress": {
        "_isEnabled": true
    }
}]